{
    "author_email": "nicholas.bennett@kellogg.northwestern.edu",
    "date_updated": "June 7, 2018",
    "template_type": "desktop",
    "audience": "staff",
    "output_filename": "M920XTINY.html",
    "description": "Product description for the Lenovo ThinkCentre M910q Tiny (Desktop), available for purchase by Kellogg School of Management faculty and staff.",
    "page_title": "KIS - Lenovo ThinkCentre M920x Tiny (Desktop) - Product Page",
    "product_name": "Lenovo ThinkCentre M920x Tiny (Desktop)",
    "product_name_short": "M920x",
    "cdwg_href": "https://www.cdwg.com/shop/cart/carthandler.aspx?EDC=5240674&edc=1197180",
    "carousel_images": [
        "images/M920xTiny/desktop/750x500/01_thinkcentre_m920q_tiny_hero_front_forward_facing.jpg",
        "images/M920xTiny/desktop/750x500/02_thinkcentre_m920q_tiny_tour_right_side.jpg",
        "images/M920xTiny/desktop/750x500/03_thinkcentre_m920q_tiny_tour_left_sidee.jpg",
        "images/M920xTiny/desktop/750x500/04_thinkcentre_m920q_tiny_tour_rear_forward_facing.jpg",
        "images/M920xTiny/desktop/750x500/05_thinkcentre_m920q_tiny_tour_front_forward_facing.jpg",
        "images/M920xTiny/desktop/750x500/06_thinkcentre_m920q_tiny_hero_front_facing_right.jpg",
        "images/M920xTiny/desktop/750x500/07_thinkcentre_m920q_tiny_hero_front_facing_right angle.jpg"
    ],
    "description_long": "This desktop is smaller than a laptop and can handle any work you throw at it. With the 3.2 GHz Intel Core i7-8700 processor, 16 GB RAM, and a 512 GB SSD using the new NVMe interface (up to 4X as fast as existing SATA SSDs), you don't have to spend a lot to get workstation-level performance. The onboard video provides dual monitor output at 4K each.",
    "highlights": [
        "Smallest desktop footprint yet, can easily be hidden behind a monitor in any workstation scenario",
    	"CPU is new Intel Core i7-8700 3.2 GHz from the Kaby Lake processor family",
        "16 GB RAM",
        "512 GB SSD with new NVMe interface, up to 4X as fast as existing SATA SSDs",
        "Support for dual monitor output at 4K resolution each, via two DisplayPort ports"
    ],
    "specifications": [
    	{
    		"name": "Processor",
    		"detail": "Intel Core i7-8700 3.2 GHz (6 cores, 8 with HT)"
    	},
    	{
    		"name": "RAM",
    		"detail": "16 GB"
    	},
    	{
    		"name": "Storage",
    		"detail": "512 GB SSD with NVMe interface"
    	},
    	{
    		"name": "Video output",
    		"detail": "Dual DisplayPort, up to 4K each"
    	},
    	{
    		"name": "Warranty",
    		"detail": "3 Year Onsite Warranty"
    	},
        {
            "name": "Weight",
            "detail": "2.91 lb (1.32 kg)"
        },
        {
            "name": "Size (WxDxH)",
            "detail": "7\" X 7.20\" X 1.4\"; 179mm X 182.9mm X 34.5mm"
        }
    ],
    "additional_links": [
    	
        {
            "href": "https://pcsupport.lenovo.com/us/en/products/desktops-and-all-in-ones/thinkcentre-m-series-desktops/thinkcentre-m920x",
            "name": "Lenovo Product Support Page"
        },
        {
            "href": "https://download.lenovo.com/pccbbs/thinkcentre_pdf/m920q_ughmm_en.pdf",
            "name": "Lenovo Hardware Maintenance Manual"
        },
        {
            "href": "http://http://psref.lenovo.com/syspool/Sys/PDF/ThinkCentre/ThinkCentre%20M920x%20Tiny/M920x%20Tiny.pdf",
            "name": "Lenovo Product Specifications Reference (PSREF)"
        }
    ],
    "compatible_accessories": [
    ]
}
